{
  "clickable_minimum_required": "6.12.2",
  "builder": "cmake",
  "kill": "camerascanner",
  "dependencies_target": [
    "libjpeg-dev",
    "libpng-dev",
    "libtiff-dev"
  ],
  "libraries": {
    "opencv": {
      "builder": "cmake",
      "dependencies_target": [
        "libjpeg-dev",
        "libpng-dev",
        "libtiff-dev"
      ],
      "build_args": [
        "-DCMAKE_BUILD_TYPE=Release",
        "-DBUILD_LIST=core,imgproc,highgui,imgcodecs",
        "-DBUILD_EXAMPLES=OFF",
        "-DBUILD_DOCS=OFF",
        "-DBUILD_PERF_TESTS=OFF",
        "-DBUILD_TESTS=OFF",
        "-DBUILD_OPENCV_APPS=OFF",
        "-DWITH_TBB=OFF",
        "-DWITH_OPENMP=OFF",
        "-DWITH_IPP=OFF",
        "-DWITH_NVCUVID=OFF",
        "-DWITH_CUDA=OFF",
        "-DWITH_CSTRIPES=OFF",
        "-DWITH_OPENCL=OFF",
        "-DBUILD_SHARED_LIBS=OFF"
      ]
    }
  }
}
